Query DeepLex & Chinese Lexical Database • lexicoR
…
      Query Word Frequencies on PTT

      Query DeepLex & Chinese Lexical Database

      Source: vignettes/databases.Rmd
      databases.Rmd

library(lexicoR)

lexicoR contains two lexical databases, DeepLex and Chinese Lexical Database. The function, query.lu(), can be used to query lexical entries in these databases.

Usage

query.lu("我", regex = TRUE, isSimp = FALSE)
#> # A tibble: 652 x 296
#>    lu_trad lu_simp cld.C1 cld.C123Backwar… cld.C123Backwar…
#>    <chr>   <chr>   <chr>             <dbl>            <dbl>
#>  1 我      我      我                   NA               NA
#>  2 小我    小我    小                   NA               NA
#>  3 外我    外我    <NA>                 NA               NA
#>  4 讀我    读我    <NA>                 NA               NA
#>  5 敵我    敌我    敌                   NA               NA
#>  6 我輩    我辈    <NA>                 NA               NA
#>  7 我軍    我军    我                   NA               NA
#>  8 我相    我相    <NA>                 NA               NA
#>  9 我倆    我俩    <NA>                 NA               NA
#> 10 給我    给我    <NA>                 NA               NA
#> # … with 642 more rows, and 291 more variables:
#> #   cld.C123ConditionalProbability <dbl>, cld.C123Entropy <dbl>,
#> #   cld.C12BackwardConditionalProbability <dbl>,
#> #   cld.C12BackwardEntropy <dbl>, cld.C12ConditionalProbability <dbl>,
#> #   cld.C12Entropy <dbl>, cld.C1BackwardConditionalProbability <dbl>,
#> #   cld.C1BackwardEntropy <dbl>, cld.C1ConditionalProbability <dbl>,
#> #   cld.C1Entropy <dbl>, cld.C1FamilyFrequency <dbl>,
#> #   cld.C1FamilySize <int>, cld.C1Frequency <dbl>,
#> #   cld.C1FrequencyRaw <int>, cld.C1FrequencyRawSUBTL <int>,
…
By default, query.lu() queries both databases. If you only want results from a particular database, you can provide an additional argument db:

query.lu("我", regex = TRUE, db = "deeplex")
#> # A tibble: 642 x 296
#>    lu_trad lu_simp cld.C1 cld.C123Backwar… cld.C123Backwar…
#>    <chr>   <chr>   <chr>             <dbl>            <dbl>
#>  1 我      我      我                   NA               NA
#>  2 小我    小我    小                   NA               NA
#>  3 外我    外我    <NA>                 NA               NA
#>  4 讀我    读我    <NA>                 NA               NA
#>  5 敵我    敌我    敌                   NA               NA
#>  6 我輩    我辈    <NA>                 NA               NA
#>  7 我軍    我军    我                   NA               NA
#>  8 我相    我相    <NA>                 NA               NA
#>  9 我倆    我俩    <NA>                 NA               NA
#> 10 給我    给我    <NA>                 NA               NA
#> # … with 632 more rows, and 291 more variables:
#> #   cld.C123ConditionalProbability <dbl>, cld.C123Entropy <dbl>,
#> #   cld.C12BackwardConditionalProbability <dbl>,
#> #   cld.C12BackwardEntropy <dbl>, cld.C12ConditionalProbability <dbl>,
#> #   cld.C12Entropy <dbl>, cld.C1BackwardConditionalProbability <dbl>,
#> #   cld.C1BackwardEntropy <dbl>, cld.C1ConditionalProbability <dbl>,
#> #   cld.C1Entropy <dbl>, cld.C1FamilyFrequency <dbl>,
#> #   cld.C1FamilySize <int>, cld.C1Frequency <dbl>,
#> #   cld.C1FrequencyRaw <int>, cld.C1FrequencyRawSUBTL <int>,
…
