Predicting lexical decision latencies in one-character words with CLD & PTT frequency data • lexicoR
…
      Predicting lexical decision latencies in one-character words with CLD & PTT frequency data

      Query Word Frequencies on PTT

      Predicting lexical decision latencies in one-character words with CLD & PTT frequency data

      Source: vignettes/model_fitting.Rmd
      model_fitting.Rmd

Download the source (data + Rmd) here.

LDT = readRDS("lexical_decision_latencies.rds")
tibble::as_tibble(LDT)
#> # A tibble: 2,416 x 10
#>    Character    RT cld.Frequency cld.C1Frequency cld.C1Strokes
#>    <chr>     <dbl>         <dbl>           <dbl>         <int>
#>  1 啊         584.       4215.            3242.             11
#>  2 哎         568.        164.             168.              9
#>  3 哀         579.          2.93            42.5             9
#>  4 唉         688.        141.             109.             10
#>  5 埃         720.          2.40            39.9            10
#>  6 挨         682.         20.4             24.7            10
#>  7 挨         682.         20.4             24.7            10
#>  8 癌         598.          1.47            28.5            17
#>  9 矮         601.         22.7             21.4            13
#> 10 艾         594.          7.49            67.9             5
#> # … with 2,406 more rows, and 5 more variables: pttFreq.2004_2009 <dbl>,
#> #   pttFreq.2010_2014 <dbl>, pttFreq.2015_2019 <dbl>, pttFreq.all <dbl>,
#> #   trad_strokes <dbl>
…
